\relax 
\providecommand\hyper@newdestlabel[2]{}
\bibstyle{Definitions/mdpi}
\providecommand\HyperFirstAtBeginDocument{\AtBeginDocument}
\HyperFirstAtBeginDocument{\ifx\hyper@anchor\@undefined
\global\let\oldcontentsline\contentsline
\gdef\contentsline#1#2#3#4{\oldcontentsline{#1}{#2}{#3}}
\global\let\oldnewlabel\newlabel
\gdef\newlabel#1#2{\newlabelxx{#1}#2}
\gdef\newlabelxx#1#2#3#4#5#6{\oldnewlabel{#1}{{#2}{#3}}}
\AtEndDocument{\ifx\hyper@anchor\@undefined
\let\contentsline\oldcontentsline
\let\newlabel\oldnewlabel
\fi}
\fi}
\global\let\hyper@last\relax 
\gdef\HyperFirstAtBeginDocument#1{#1}
\providecommand\HyField@AuxAddToFields[1]{}
\providecommand\HyField@AuxAddToCoFields[2]{}
\providecommand*\new@tpo@label[2]{}
\citation{frothingham_juby_2021}
\citation{holland_legg_2018}
\citation{Khondoker2016}
\citation{Silva2016}
\citation{Glassman1990}
\citation{Sher2004}
\citation{Knppel2017}
\citation{Stefanis1986}
\citation{Ross1994}
\citation{Ross1994}
\citation{AkhtarDanesh2007}
\citation{AkhtarDanesh2007}
\citation{lvaroEstramiana2010}
\citation{Lorant2007}
\citation{Lorant2007}
\citation{Lorant2007}
\citation{Afonso2017}
\citation{Li2019}
\citation{Li2019}
\citation{Li2019}
\citation{Li2019}
\citation{Li2019}
\citation{Laird1973}
\citation{filipova_ramirez_rubio_2020}
\citation{filipova_ramirez_rubio_2020}
\@LN@col{1}
\@LN@col{1}
\@writefile{toc}{\contentsline {section}{\numberline {1}Introducción}{1}{section.1}\protected@file@percent }
\@writefile{toc}{\contentsline {section}{\numberline {2}Estado del arte}{1}{section.2}\protected@file@percent }
\@LN@col{1}
\@writefile{toc}{\contentsline {section}{\numberline {3}Materials and Methods}{2}{section.3}\protected@file@percent }
\bibdata{bibliography.bib}
\bibcite{frothingham_juby_2021}{{1}{2021}{{Frothingham and Juby}}{{}}}
\bibcite{holland_legg_2018}{{2}{2018}{{Holland and Legg}}{{}}}
\bibcite{Khondoker2016}{{3}{2016}{{Khondoker \em  {et~al.}}}{{Khondoker, Dobson, Skirrow, Simmons, and Stahl}}}
\bibcite{Silva2016}{{4}{2016}{{Silva \em  {et~al.}}}{{Silva, Loureiro, and Cardoso}}}
\bibcite{Glassman1990}{{5}{1990}{{Glassman}}{{}}}
\bibcite{Sher2004}{{6}{2004}{{Sher}}{{}}}
\bibcite{Knppel2017}{{7}{2017}{{Kn\"{u}ppel \em  {et~al.}}}{{Kn\"{u}ppel, Shipley, Llewellyn, and Brunner}}}
\bibcite{Stefanis1986}{{8}{1986}{{Stefanis and Kokkevi}}{{}}}
\bibcite{Ross1994}{{9}{1994}{{Ross}}{{}}}
\@LN@col{1}
\@LN@col{1}
\@writefile{toc}{\contentsline {section}{\numberline {4}Results}{4}{section.4}\protected@file@percent }
\@writefile{toc}{\contentsline {section}{\numberline {5}Discussion}{4}{section.5}\protected@file@percent }
\@writefile{toc}{\contentsline {section}{\numberline {6}Conclusions}{4}{section.6}\protected@file@percent }
\@writefile{toc}{\contentsline {section}{\numberline {A}}{4}{section.A.}\protected@file@percent }
\@writefile{toc}{\contentsline {subsection}{\numberline {A.1}}{4}{subsection.A.1}\protected@file@percent }
\@writefile{lospecialtable}{\contentsline {specialtable}{\numberline {A1}{\ignorespaces This is a table caption. Tables should be placed in the main text near to the first time they are\nobreakspace  {}cited.\relax }}{4}{specialtable.caption.4}\protected@file@percent }
\providecommand*\caption@xref[2]{\@setref\relax\@undefined{#1}}
\newlabel{tab1}{{A1}{4}{This is a table caption. Tables should be placed in the main text near to the first time they are~cited.\relax }{specialtable.caption.4}{}}
\@writefile{toc}{\contentsline {section}{\numberline {B}}{4}{section.B.}\protected@file@percent }
\@writefile{toc}{\contentsline {section}{References}{4}{section.B.}\protected@file@percent }
\bibcite{AkhtarDanesh2007}{{10}{2007}{{Akhtar-Danesh and Landeen}}{{}}}
\bibcite{lvaroEstramiana2010}{{11}{2010}{{{\'{A}}lvaro-Estramiana \em  {et~al.}}}{{{\'{A}}lvaro-Estramiana, Garrido-Luque, and Schweiger-Gallo}}}
\bibcite{Lorant2007}{{12}{2007}{{Lorant \em  {et~al.}}}{{Lorant, Croux, Weich, Deli{\`{e}}ge, Mackenbach, and Ansseau}}}
\bibcite{Afonso2017}{{13}{2017}{{Afonso \em  {et~al.}}}{{Afonso, Fonseca, and Pires}}}
\bibcite{Li2019}{{14}{2019}{{Li \em  {et~al.}}}{{Li, Ge, Greene, and Dunbar-Jacob}}}
\bibcite{Laird1973}{{15}{1973}{{Laird}}{{}}}
\bibcite{filipova_ramirez_rubio_2020}{{16}{2020}{{Filipova and Ramírez-Rubio}}{{}}}
\newlabel{LastPage}{{}{5}{}{page.5}{}}
\xdef\lastpage@lastpage{5}
\xdef\lastpage@lastpageHy{5}
\expandafter\ifx\csname c@page@totc\endcsname\relax\newcounter{page@totc}\fi\setcounter{page@totc}{6}
